<svg xmlns="http://www.w3.org/2000/svg" class="icon icon-tabler icon-tabler-users" width="44" height="44"
    viewBox="0 0 24 24" stroke-width="1.5" stroke="#ff2825" fill="none" stroke-linecap="round" stroke-linejoin="round">
    <path stroke="none" d="M0 0h24v24H0z" fill="none" />
    <circle cx="9" cy="7" r="4" />
    <path d="M3 21v-2a4 4 0 0 1 4 -4h4a4 4 0 0 1 4 4v2" />
    <path d="M16 3.13a4 4 0 0 1 0 7.75" />
    <path d="M21 21v-2a4 4 0 0 0 -3 -3.85" />
</svg>